name,url,digger_name,description,region,is_independent,is_bm,is_marketplace,is_direct
Norman Records,https://www.normanrecords.com/,normanrecords,,WE,1,0,0,0
Piccadilly Records,https://www.piccadillyrecords.com,piccadillyrecords,,WE,1,1,0,0
Juno Records,https://www.juno.co.uk/,junorecords,,WE,1,0,0,0
eBay FR,https://ebay.fr,ebay,,WE,0,0,1,0
Bandcamp,https://bandcamp.com,bandcamp,,,1,0,1,1
Blind Spot,https://www.discogs.com/fr/seller/Blind_Spot/profile,discogs,,WE,1,1,0,0
