<?xml version="1.0" encoding="UTF-8" standalone="no"?>
<svg
   xmlns:dc="http://purl.org/dc/elements/1.1/"
   xmlns:cc="http://creativecommons.org/ns#"
   xmlns:rdf="http://www.w3.org/1999/02/22-rdf-syntax-ns#"
   xmlns:svg="http://www.w3.org/2000/svg"
   xmlns="http://www.w3.org/2000/svg"
   xmlns:sodipodi="http://sodipodi.sourceforge.net/DTD/sodipodi-0.dtd"
   xmlns:inkscape="http://www.inkscape.org/namespaces/inkscape"
   enable-background="new 0 0 64 64"
   height="64px"
   version="1.1"
   viewBox="0 0 64 64"
   width="64px"
   xml:space="preserve"
   id="svg3850"
   sodipodi:docname="logo.svg"
   inkscape:export-filename="/home/renaud/canarduck/disques/disques/static/img/logo.png"
   inkscape:export-xdpi="453"
   inkscape:export-ydpi="453"
   inkscape:version="1.0.1 (3bc2e813f5, 2020-09-07)"><metadata
     id="metadata3856"><rdf:RDF><cc:Work
         rdf:about=""><dc:format>image/svg+xml</dc:format><dc:type
           rdf:resource="http://purl.org/dc/dcmitype/StillImage" /><dc:title /></cc:Work></rdf:RDF></metadata><defs
     id="defs3854" /><sodipodi:namedview
     pagecolor="#ffffff"
     bordercolor="#666666"
     borderopacity="1"
     objecttolerance="10"
     gridtolerance="10"
     guidetolerance="10"
     inkscape:pageopacity="0"
     inkscape:pageshadow="2"
     inkscape:window-width="1920"
     inkscape:window-height="1048"
     id="namedview3852"
     showgrid="false"
     inkscape:zoom="9.8640001"
     inkscape:cx="19.09579"
     inkscape:cy="31.836462"
     inkscape:window-x="0"
     inkscape:window-y="32"
     inkscape:window-maximized="1"
     inkscape:current-layer="layer3"
     inkscape:document-rotation="0" /><g
     id="Layer_2" /><g
     inkscape:groupmode="layer"
     id="layer2"
     inkscape:label="Layer 2"><g
       id="g3822"
       transform="translate(22.732041,-5.8380844)" /></g><g
     inkscape:groupmode="layer"
     id="layer1"
     inkscape:label="Layer 1"
     style="display:inline" /><g
     inkscape:groupmode="layer"
     id="layer3"
     inkscape:label="Layer 3"
     style="display:inline"><g
       id="g866"
       transform="matrix(0.98801634,0,0,0.98801634,-0.33979076,0.22350263)"><circle
         style="fill:#ff5349;fill-opacity:1"
         id="circle3820"
         r="32"
         cy="32.161915"
         cx="32.73204"
         inkscape:export-filename="/home/renaud/canarduck/disques/disques/static/img/logo.png"
         inkscape:export-xdpi="453"
         inkscape:export-ydpi="453" /><g
         style="opacity:0.2"
         id="g3828"
         transform="translate(0.732041,0.1619156)"
         inkscape:export-filename="/home/renaud/canarduck/disques/disques/static/img/logo.png"
         inkscape:export-xdpi="453"
         inkscape:export-ydpi="453"><g
           id="g3826"><path
             style="fill:#231f20"
             inkscape:connector-curvature="0"
             id="path3824"
             d="m 48,52.5 c -0.64,0 -1.28,-0.244 -1.768,-0.732 l -12,-12 c -0.977,-0.977 -0.977,-2.559 0,-3.535 0.976,-0.977 2.56,-0.977 3.535,0 l 12,12 c 0.977,0.977 0.977,2.559 0,3.535 C 49.28,52.256 48.64,52.5 48,52.5 Z" /></g></g><g
         id="g3832"
         transform="translate(0.732041,0.1619156)"
         inkscape:export-filename="/home/renaud/canarduck/disques/disques/static/img/logo.png"
         inkscape:export-xdpi="453"
         inkscape:export-ydpi="453"><path
           style="fill:#4f5d73"
           inkscape:connector-curvature="0"
           id="path3830"
           d="m 48,50.5 c -0.64,0 -1.28,-0.244 -1.768,-0.732 l -12,-12 c -0.977,-0.977 -0.977,-2.559 0,-3.535 0.976,-0.977 2.56,-0.977 3.535,0 l 12,12 c 0.977,0.977 0.977,2.559 0,3.535 C 49.28,50.256 48.64,50.5 48,50.5 Z" /></g><circle
         cx="29.268747"
         cy="28.365503"
         r="10.877994"
         style="fill:#3e3e3f;stroke-width:0.5439"
         id="circle3910-7"
         inkscape:export-filename="/home/renaud/canarduck/disques/disques/static/img/logo.png"
         inkscape:export-xdpi="453"
         inkscape:export-ydpi="453" /><circle
         cx="29.268747"
         cy="28.365503"
         r="4.3511972"
         style="fill:#ac9393;stroke-width:0.5439"
         id="circle3934-5"
         inkscape:export-filename="/home/renaud/canarduck/disques/disques/static/img/logo.png"
         inkscape:export-xdpi="453"
         inkscape:export-ydpi="453" /><circle
         cx="29.268747"
         cy="28.365503"
         r="0.84957129"
         style="fill:#ffffff;stroke-width:0.5439"
         id="circle3936-3"
         inkscape:export-filename="/home/renaud/canarduck/disques/disques/static/img/logo.png"
         inkscape:export-xdpi="453"
         inkscape:export-ydpi="453" /><g
         style="opacity:0.2"
         id="g3842"
         transform="translate(0.732041,0.161916)"
         inkscape:export-filename="/home/renaud/canarduck/disques/disques/static/img/logo.png"
         inkscape:export-xdpi="453"
         inkscape:export-ydpi="453"><g
           id="g3840"><path
             style="fill:#231f20"
             inkscape:connector-curvature="0"
             id="path3838"
             d="m 28.386,19.819 c 2.704,0 5.409,1.032 7.472,3.095 4.127,4.127 4.127,10.817 0,14.944 -2.063,2.063 -4.768,3.095 -7.472,3.095 -2.704,0 -5.409,-1.032 -7.472,-3.095 -4.127,-4.127 -4.127,-10.817 0,-14.944 2.063,-2.063 4.768,-3.095 7.472,-3.095 z m 0,-4 c -3.891,0 -7.549,1.515 -10.3,4.267 -5.68,5.68 -5.68,14.921 0,20.601 2.751,2.751 6.409,4.267 10.3,4.267 3.891,0 7.549,-1.515 10.3,-4.267 5.68,-5.68 5.68,-14.921 0,-20.601 -2.751,-2.752 -6.409,-4.267 -10.3,-4.267 z" /></g></g><g
         id="g3846"
         transform="translate(0.732041,0.161916)"
         inkscape:export-filename="/home/renaud/canarduck/disques/disques/static/img/logo.png"
         inkscape:export-xdpi="453"
         inkscape:export-ydpi="453"><path
           style="fill:#ffffff"
           inkscape:connector-curvature="0"
           id="path3844"
           d="m 28.386,17.819 c 2.704,0 5.409,1.032 7.472,3.095 4.127,4.127 4.127,10.817 0,14.944 -2.063,2.063 -4.768,3.095 -7.472,3.095 -2.704,0 -5.409,-1.032 -7.472,-3.095 -4.127,-4.127 -4.127,-10.817 0,-14.944 2.063,-2.063 4.768,-3.095 7.472,-3.095 m 0,-4 c -3.891,0 -7.549,1.515 -10.3,4.267 -5.68,5.68 -5.68,14.921 0,20.601 2.751,2.751 6.409,4.267 10.3,4.267 3.891,0 7.549,-1.515 10.3,-4.267 5.68,-5.68 5.68,-14.921 0,-20.601 -2.751,-2.752 -6.409,-4.267 -10.3,-4.267 z" /></g><circle
         cx="29.21571"
         cy="28.369762"
         r="6.9741955"
         style="display:inline;fill:none;stroke:#ffffff;stroke-width:0.0641129;stroke-miterlimit:4;stroke-dasharray:none;stroke-opacity:0.153846"
         id="circle3910-7-2"
         inkscape:export-filename="/home/renaud/canarduck/disques/disques/static/img/logo.png"
         inkscape:export-xdpi="453"
         inkscape:export-ydpi="453" /><circle
         cx="29.21571"
         cy="28.369762"
         r="8.0528765"
         style="display:inline;fill:none;stroke:#ffffff;stroke-width:0.0740291;stroke-miterlimit:4;stroke-dasharray:none;stroke-opacity:0.153846"
         id="circle3910-7-2-7"
         inkscape:export-filename="/home/renaud/canarduck/disques/disques/static/img/logo.png"
         inkscape:export-xdpi="453"
         inkscape:export-ydpi="453" /></g></g></svg>
